// Jest Snapshot v1, https://goo.gl/fbAQLP

exports[`render correctly 1`] = `
<View
  style={
    Object {
      "alignItems": "center",
      "flex": 1,
      "flexDirection": "row",
      "height": 30,
      "justifyContent": "center",
      "marginLeft": 20,
      "marginRight": 20,
    }
  }
>
  <View
    active={false}
    style={
      Array [
        Object {
          "backgroundColor": "#ccc",
          "borderRadius": 6,
          "height": 6,
          "marginBottom": 3,
          "marginLeft": 3,
          "marginRight": 3,
          "marginTop": 3,
          "width": 6,
        },
      ]
    }
  />
  <View
    active={false}
    style={
      Array [
        Object {
          "backgroundColor": "#ccc",
          "borderRadius": 6,
          "height": 6,
          "marginBottom": 3,
          "marginLeft": 3,
          "marginRight": 3,
          "marginTop": 3,
          "width": 6,
        },
      ]
    }
  />
  <View
    active={false}
    style={
      Array [
        Object {
          "backgroundColor": "#ccc",
          "borderRadius": 6,
          "height": 6,
          "marginBottom": 3,
          "marginLeft": 3,
          "marginRight": 3,
          "marginTop": 3,
          "width": 6,
        },
      ]
    }
  />
  <View
    active={false}
    style={
      Array [
        Object {
          "backgroundColor": "#ccc",
          "borderRadius": 6,
          "height": 6,
          "marginBottom": 3,
          "marginLeft": 3,
          "marginRight": 3,
          "marginTop": 3,
          "width": 6,
        },
      ]
    }
  />
</View>
`;
