{
  "project_info": {
    "project_number": "442994070038",
    "firebase_url": "https://que-beta.firebaseio.com",
    "project_id": "que-beta",
    "storage_bucket": "que-beta.appspot.com"
  },
  "client": [
    {
      "client_info": {
        "mobilesdk_app_id": "1:442994070038:android:b5279625f566bc3b749b37",
        "android_client_info": {
          "package_name": "com.que"
        }
      },
      "oauth_client": [
        {
          "client_id": "442994070038-hrmlqtfsb1rhpgm5mscufn058vf7vrs0.apps.googleusercontent.com",
          "client_type": 3
        }
      ],
      "api_key": [
        {
          "current_key": "AIzaSyBgIETAfvpoTkVk7OXjKYmJXVCDu3BfgGo"
        }
      ],
      "services": {
        "appinvite_service": {
          "other_platform_oauth_client": [
            {
              "client_id": "442994070038-hrmlqtfsb1rhpgm5mscufn058vf7vrs0.apps.googleusercontent.com",
              "client_type": 3
            }
          ]
        }
      }
    }
  ],
  "configuration_version": "1"
}